Probability Intro Data Analysis Project - Exploring the BRFSS data
…
For the response variables, the Chronic Health Conditions in the Main Survey - Section 7, which are Yes, No, NA responses related to Heart conditions, are the following :

cvdinfr4: Ever Diagnosed With Heart Attack

cvdcrhd4: Ever Diagnosed With Angina Or Coronary Heart Disease

cvdstrk3: Ever Diagnosed With A Stroke

# Investigate the structure of the heart conditions
brfss2013 %>% 
  group_by(cvdinfr4, cvdcrhd4,cvdstrk3) %>% 
  summarise(count = n())

## Source: local data frame [27 x 4]
## Groups: cvdinfr4, cvdcrhd4 [?]
## 
##    cvdinfr4 cvdcrhd4 cvdstrk3 count
##      <fctr>   <fctr>   <fctr> <int>
## 1       Yes      Yes      Yes  3004
## 2       Yes      Yes       No 10853
## 3       Yes      Yes       NA    96
## 4       Yes       No      Yes  2395
## 5       Yes       No       No 11415
## 6       Yes       No       NA    96
## 7       Yes       NA      Yes   314
## 8       Yes       NA       No  1075
## 9       Yes       NA       NA    36
## 10       No      Yes      Yes  1761
## # ... with 17 more rows
…
